Capstone
…
Predict

Who will win the World Cup according to the model?

cm_test_2022$prediction <- predict(model, newdata =  cm_test_2022)

results <- cm_test_2022[, c("team", "prediction")]
print(results[order(-results$prediction),])

## # A tibble: 130 x 2
##    team                    prediction
##    <chr>                        <dbl>
##  1 Brazil_2022                   28.7
##  2 Uruguay_2022                  27.5
##  3 Argentina_2022                25.7
##  4 Guinea-Bissau_2022            23.3
##  5 Nigeria_2022                  22.9
##  6 Cuba_2022                     22.6
##  7 Portugal_2022                 22.1
##  8 Colombia_2022                 22.1
##  9 Dominican Republic_2022       21.6
## 10 Costa Rica_2022               21.6
## # ... with 120 more rows
…
